Glue numbers and letters in R
…
<!-- 
<!-- From here: https://slides.yihui.name/xaringan/ -->

---
layout: true

---
class: left, top

Sometimes you want to do the following:

## 1. Write analysis results as inline text

```
## # A tibble: 100 x 2
##    id     state        
##    <fct>  <fct>        
##  1 id_982 South Karelia
##  2 id_261 South Karelia
##  3 id_331 Lapland      
##  4 id_923 Uusimaa      
##  5 id_858 Lapland      
##  6 id_289 Lapland      
##  7 id_319 Uusimaa      
##  8 id_607 South Karelia
##  9 id_749 Lapland      
## 10 id_138 South Karelia
## # … with 90 more rows
```
…
